{
    "count": 110,
    "next": "http://localhost:8001/api/workspaces/2/mappings/employee/?limit=50&offset=50",
    "previous": "http://localhost:8001/api/workspaces/2/mappings/employee/?limit=50&offset=0",
    "results": [
        {
            "id": 10,
            "source_employee": {
                "id": 2314,
                "attribute_type": "EMPLOYEE",
                "display_name": "Employee",
                "value": "admin1@fyleformicro.testing",
                "source_id": "ouBmEASv8RSo",
                "auto_mapped": false,
                "auto_created": false,
                "active": true,
                "detail": {
                    "user_id": "us9QvsMW4xoQ",
                    "location": null,
                    "full_name": "Theresa Brown",
                    "department": null,
                    "department_id": null,
                    "employee_code": null,
                    "department_code": null
                },
                "created_at": "2022-12-12T07:52:37.238934Z",
                "updated_at": "2022-12-26T05:32:15.961012Z",
                "workspace": 2
            },
            "destination_employee": {
                "id": 2257,
                "attribute_type": "EMPLOYEE",
                "display_name": "Employee",
                "value": "Ashwin",
                "destination_id": "3780",
                "auto_created": false,
                "active": true,
                "detail": {
                    "email": "ashwin.t+us2@fyle.in",
                    "title": null,
                    "mobile": null,
                    "class_id": "14",
                    "full_name": "Ashwin",
                    "joined_at": "2021-03-16T01:38:24.000-07:00",
                    "location_id": "2",
                    "department_id": "11",
                    "location_name": "01: San Francisco",
                    "approver_emails": [],
                    "department_name": "Engineering",
                    "parent_department": null,
                    "allow_access_to_fyle": false
                },
                "created_at": "2022-12-12T07:52:51.271033Z",
                "updated_at": "2022-12-22T10:21:47.009801Z",
                "workspace": 2
            },
            "destination_vendor": null,
            "destination_card_account": null,
            "created_at": "2022-12-12T07:53:51.790355Z",
            "updated_at": "2022-12-26T05:32:15.966108Z",
            "workspace": 2
        },
        {
            "id": 11,
            "source_employee": {
                "id": 2316,
                "attribute_type": "EMPLOYEE",
                "display_name": "Employee",
                "value": "approver1@fyleformicro.testing",
                "source_id": "oufVf1gyAjN3",
                "auto_mapped": true,
                "auto_created": false,
                "active": true,
                "detail": {
                    "user_id": "us4qbZjc7qdL",
                    "location": null,
                    "full_name": "Ryan Gallagher",
                    "department": null,
                    "department_id": null,
                    "employee_code": null,
                    "department_code": null
                },
                "created_at": "2022-12-12T07:52:37.238965Z",
                "updated_at": "2022-12-12T07:52:37.238967Z",
                "workspace": 2
            },
            "destination_employee": {
                "id": 2273,
                "attribute_type": "EMPLOYEE",
                "display_name": "Employee",
                "value": "Ryan Gallagher",
                "destination_id": "10088",
                "auto_created": false,
                "active": true,
                "detail": {
                    "email": "ashwin.t+100@fyle.in",
                    "title": null,
                    "mobile": "+917358566056",
                    "class_id": "15",
                    "full_name": "Ryan Gallagher",
                    "joined_at": "2021-07-05T23:59:07.000-07:00",
                    "location_id": "7",
                    "department_id": "2",
                    "location_name": "Fyle",
                    "approver_emails": [
                        "ashwin.t+us2@fyle.in"
                    ],
                    "department_name": "Sales",
                    "parent_department": null,
                    "allow_access_to_fyle": false
                },
                "created_at": "2022-12-12T07:52:51.271291Z",
                "updated_at": "2022-12-22T10:21:47.010162Z",
                "workspace": 2
            },
            "destination_vendor": null,
            "destination_card_account": null,
            "created_at": "2022-12-12T07:53:51.790365Z",
            "updated_at": "2022-12-12T07:53:51.790367Z",
            "workspace": 2
        },
        {
            "id": 9,
            "source_employee": {
                "id": 2313,
                "attribute_type": "EMPLOYEE",
                "display_name": "Employee",
                "value": "user10@fyleformicro.testing",
                "source_id": "ou9fHgEy02Iw",
                "auto_mapped": true,
                "auto_created": false,
                "active": true,
                "detail": {
                    "user_id": "usTCblTxcLX0",
                    "location": null,
                    "full_name": "Matthew Estrada",
                    "department": "Department 1",
                    "department_id": "depta9rdEH4QF5",
                    "employee_code": null,
                    "department_code": null
                },
                "created_at": "2022-12-12T07:52:37.238918Z",
                "updated_at": "2022-12-12T07:52:37.238921Z",
                "workspace": 2
            },
            "destination_employee": {
                "id": 2259,
                "attribute_type": "EMPLOYEE",
                "display_name": "Employee",
                "value": "Matthew Estrada",
                "destination_id": "3982",
                "auto_created": false,
                "active": true,
                "detail": {
                    "email": "user10@fylefortestnewccc1.in",
                    "title": null,
                    "mobile": null,
                    "class_id": null,
                    "full_name": "Matthew Estrada",
                    "joined_at": "2021-03-25T04:42:35.000-07:00",
                    "location_id": null,
                    "department_id": null,
                    "location_name": null,
                    "approver_emails": [],
                    "department_name": null,
                    "parent_department": null,
                    "allow_access_to_fyle": false
                },
                "created_at": "2022-12-12T07:52:51.271064Z",
                "updated_at": "2022-12-22T10:21:47.009843Z",
                "workspace": 2
            },
            "destination_vendor": null,
            "destination_card_account": null,
            "created_at": "2022-12-12T07:53:51.790345Z",
            "updated_at": "2022-12-12T07:53:51.790347Z",
            "workspace": 2
        },
        {
            "id": 8,
            "source_employee": {
                "id": 2312,
                "attribute_type": "EMPLOYEE",
                "display_name": "Employee",
                "value": "user1@fyleformicro.testing",
                "source_id": "ouwCoTH2Tc0E",
                "auto_mapped": true,
                "auto_created": false,
                "active": true,
                "detail": {
                    "user_id": "usMbeh7qhXjQ",
                    "location": null,
                    "full_name": "Joshua Wood",
                    "department": "Department 1",
                    "department_id": "depta9rdEH4QF5",
                    "employee_code": null,
                    "department_code": null
                },
                "created_at": "2022-12-12T07:52:37.238903Z",
                "updated_at": "2022-12-12T07:52:37.238906Z",
                "workspace": 2
            },
            "destination_employee": {
                "id": 2249,
                "attribute_type": "EMPLOYEE",
                "display_name": "Employee",
                "value": "Joshua Wood",
                "destination_id": "2881",
                "auto_created": false,
                "active": true,
                "detail": {
                    "email": "user1@fyleforintegrations.com",
                    "title": null,
                    "mobile": null,
                    "class_id": null,
                    "full_name": "Joshua Wood",
                    "joined_at": "2021-03-09T05:54:56.000-08:00",
                    "location_id": null,
                    "department_id": null,
                    "location_name": null,
                    "approver_emails": [],
                    "department_name": null,
                    "parent_department": null,
                    "allow_access_to_fyle": false
                },
                "created_at": "2022-12-12T07:52:51.270909Z",
                "updated_at": "2022-12-22T10:21:47.009575Z",
                "workspace": 2
            },
            "destination_vendor": null,
            "destination_card_account": null,
            "created_at": "2022-12-12T07:53:51.790335Z",
            "updated_at": "2022-12-12T07:53:51.790338Z",
            "workspace": 2
        },
        {
            "id": 7,
            "source_employee": {
                "id": 2311,
                "attribute_type": "EMPLOYEE",
                "display_name": "Employee",
                "value": "user2@fyleformicro.testing",
                "source_id": "ouJpfMRLkh9x",
                "auto_mapped": true,
                "auto_created": false,
                "active": true,
                "detail": {
                    "user_id": "usE6vw1G2brb",
                    "location": null,
                    "full_name": "Brian Foster",
                    "department": "Department 2",
                    "department_id": "dept3jkgYEJHYx",
                    "employee_code": null,
                    "department_code": null
                },
                "created_at": "2022-12-12T07:52:37.238888Z",
                "updated_at": "2022-12-12T07:52:37.238890Z",
                "workspace": 2
            },
            "destination_employee": {
                "id": 2254,
                "attribute_type": "EMPLOYEE",
                "display_name": "Employee",
                "value": "Brian Foster",
                "destination_id": "3680",
                "auto_created": false,
                "active": true,
                "detail": {
                    "email": "user2@fylefortestnewccc1.in",
                    "title": null,
                    "mobile": null,
                    "class_id": null,
                    "full_name": "Brian Foster",
                    "joined_at": "2021-03-11T03:29:50.000-08:00",
                    "location_id": null,
                    "department_id": null,
                    "location_name": null,
                    "approver_emails": [],
                    "department_name": null,
                    "parent_department": null,
                    "allow_access_to_fyle": true
                },
                "created_at": "2022-12-12T07:52:51.270988Z",
                "updated_at": "2022-12-22T10:21:47.009738Z",
                "workspace": 2
            },
            "destination_vendor": null,
            "destination_card_account": null,
            "created_at": "2022-12-12T07:53:51.790325Z",
            "updated_at": "2022-12-12T07:53:51.790328Z",
            "workspace": 2
        },
        {
            "id": 6,
            "source_employee": {
                "id": 2310,
                "attribute_type": "EMPLOYEE",
                "display_name": "Employee",
                "value": "user3@fyleformicro.testing",
                "source_id": "ouqLvFVg1i4X",
                "auto_mapped": true,
                "auto_created": false,
                "active": true,
                "detail": {
                    "user_id": "usUnnKXVT277",
                    "location": null,
                    "full_name": "Natalie Pope",
                    "department": "Department 2",
                    "department_id": "dept3jkgYEJHYx",
                    "employee_code": null,
                    "department_code": null
                },
                "created_at": "2022-12-12T07:52:37.238872Z",
                "updated_at": "2022-12-12T07:52:37.238875Z",
                "workspace": 2
            },
            "destination_employee": {
                "id": 2250,
                "attribute_type": "EMPLOYEE",
                "display_name": "Employee",
                "value": "Natalie Pope",
                "destination_id": "2882",
                "auto_created": false,
                "active": true,
                "detail": {
                    "email": "user3@fyleforintegrations.com",
                    "title": null,
                    "mobile": null,
                    "class_id": null,
                    "full_name": "Natalie Pope",
                    "joined_at": "2021-03-09T05:54:58.000-08:00",
                    "location_id": null,
                    "department_id": null,
                    "location_name": null,
                    "approver_emails": [],
                    "department_name": null,
                    "parent_department": null,
                    "allow_access_to_fyle": false
                },
                "created_at": "2022-12-12T07:52:51.270924Z",
                "updated_at": "2022-12-22T10:21:47.009620Z",
                "workspace": 2
            },
            "destination_vendor": null,
            "destination_card_account": null,
            "created_at": "2022-12-12T07:53:51.790315Z",
            "updated_at": "2022-12-12T07:53:51.790318Z",
            "workspace": 2
        },
        {
            "id": 5,
            "source_employee": {
                "id": 2309,
                "attribute_type": "EMPLOYEE",
                "display_name": "Employee",
                "value": "user4@fyleformicro.testing",
                "source_id": "ouEF9rK40Gju",
                "auto_mapped": true,
                "auto_created": false,
                "active": true,
                "detail": {
                    "user_id": "usxPV8DcJMAA",
                    "location": null,
                    "full_name": "Samantha Washington",
                    "department": "Department 2",
                    "department_id": "dept3jkgYEJHYx",
                    "employee_code": null,
                    "department_code": null
                },
                "created_at": "2022-12-12T07:52:37.238856Z",
                "updated_at": "2022-12-12T07:52:37.238859Z",
                "workspace": 2
            },
            "destination_employee": {
                "id": 2260,
                "attribute_type": "EMPLOYEE",
                "display_name": "Employee",
                "value": "Samantha Washington",
                "destination_id": "3983",
                "auto_created": false,
                "active": true,
                "detail": {
                    "email": "user4@fylefortestnewccc1.in",
                    "title": null,
                    "mobile": null,
                    "class_id": null,
                    "full_name": "Samantha Washington",
                    "joined_at": "2021-03-25T04:42:45.000-07:00",
                    "location_id": null,
                    "department_id": null,
                    "location_name": null,
                    "approver_emails": [],
                    "department_name": null,
                    "parent_department": null,
                    "allow_access_to_fyle": false
                },
                "created_at": "2022-12-12T07:52:51.271079Z",
                "updated_at": "2022-12-22T10:21:47.009875Z",
                "workspace": 2
            },
            "destination_vendor": null,
            "destination_card_account": null,
            "created_at": "2022-12-12T07:53:51.790305Z",
            "updated_at": "2022-12-12T07:53:51.790308Z",
            "workspace": 2
        },
        {
            "id": 4,
            "source_employee": {
                "id": 2307,
                "attribute_type": "EMPLOYEE",
                "display_name": "Employee",
                "value": "user6@fyleformicro.testing",
                "source_id": "oucFxWlBufQm",
                "auto_mapped": true,
                "auto_created": false,
                "active": true,
                "detail": {
                    "user_id": "usX5N8D67qQ0",
                    "location": null,
                    "full_name": "Victor Martinez",
                    "department": "Department 4",
                    "department_id": "dept5P7xFVl212",
                    "employee_code": null,
                    "department_code": null
                },
                "created_at": "2022-12-12T07:52:37.238825Z",
                "updated_at": "2022-12-12T07:52:37.238828Z",
                "workspace": 2
            },
            "destination_employee": {
                "id": 2247,
                "attribute_type": "EMPLOYEE",
                "display_name": "Employee",
                "value": "Victor Martinez",
                "destination_id": "2681",
                "auto_created": false,
                "active": true,
                "detail": {
                    "email": "user6@fylefornscurrency.in",
                    "title": null,
                    "mobile": null,
                    "class_id": null,
                    "full_name": "Victor Martinez",
                    "joined_at": "2021-03-08T04:09:02.000-08:00",
                    "location_id": null,
                    "department_id": "11",
                    "location_name": null,
                    "approver_emails": [],
                    "department_name": "Engineering",
                    "parent_department": null,
                    "allow_access_to_fyle": false
                },
                "created_at": "2022-12-12T07:52:51.270878Z",
                "updated_at": "2022-12-22T10:21:47.009535Z",
                "workspace": 2
            },
            "destination_vendor": null,
            "destination_card_account": null,
            "created_at": "2022-12-12T07:53:51.790295Z",
            "updated_at": "2022-12-12T07:53:51.790298Z",
            "workspace": 2
        },
        {
            "id": 3,
            "source_employee": {
                "id": 2306,
                "attribute_type": "EMPLOYEE",
                "display_name": "Employee",
                "value": "user7@fyleformicro.testing",
                "source_id": "ou6u9Bnv9wbs",
                "auto_mapped": true,
                "auto_created": false,
                "active": true,
                "detail": {
                    "user_id": "usxW1r9fhjMN",
                    "location": null,
                    "full_name": "James Taylor",
                    "department": "Department 2",
                    "department_id": "dept3jkgYEJHYx",
                    "employee_code": null,
                    "department_code": null
                },
                "created_at": "2022-12-12T07:52:37.238810Z",
                "updated_at": "2022-12-12T07:52:37.238813Z",
                "workspace": 2
            },
            "destination_employee": {
                "id": 2244,
                "attribute_type": "EMPLOYEE",
                "display_name": "Employee",
                "value": "James Taylor",
                "destination_id": "2580",
                "auto_created": false,
                "active": true,
                "detail": {
                    "email": "user7@fyleforqbopaymentsync.in",
                    "title": null,
                    "mobile": null,
                    "class_id": null,
                    "full_name": "James Taylor",
                    "joined_at": "2021-03-02T23:10:44.000-08:00",
                    "location_id": null,
                    "department_id": null,
                    "location_name": null,
                    "approver_emails": [],
                    "department_name": null,
                    "parent_department": null,
                    "allow_access_to_fyle": false
                },
                "created_at": "2022-12-12T07:52:51.270829Z",
                "updated_at": "2022-12-22T10:21:47.009466Z",
                "workspace": 2
            },
            "destination_vendor": null,
            "destination_card_account": null,
            "created_at": "2022-12-12T07:53:51.790285Z",
            "updated_at": "2022-12-12T07:53:51.790288Z",
            "workspace": 2
        },
        {
            "id": 2,
            "source_employee": {
                "id": 2305,
                "attribute_type": "EMPLOYEE",
                "display_name": "Employee",
                "value": "user8@fyleformicro.testing",
                "source_id": "ouimFeg7ewbX",
                "auto_mapped": true,
                "auto_created": false,
                "active": true,
                "detail": {
                    "user_id": "usxxjE9oaIJW",
                    "location": null,
                    "full_name": "Jessica Lane",
                    "department": "Department 1",
                    "department_id": "depta9rdEH4QF5",
                    "employee_code": null,
                    "department_code": null
                },
                "created_at": "2022-12-12T07:52:37.238793Z",
                "updated_at": "2022-12-12T07:52:37.238796Z",
                "workspace": 2
            },
            "destination_employee": {
                "id": 2256,
                "attribute_type": "EMPLOYEE",
                "display_name": "Employee",
                "value": "Jessica Lane",
                "destination_id": "3682",
                "auto_created": false,
                "active": true,
                "detail": {
                    "email": "user8@fylefortestnewccc1.in",
                    "title": null,
                    "mobile": null,
                    "class_id": null,
                    "full_name": "Jessica Lane",
                    "joined_at": "2021-03-11T04:06:32.000-08:00",
                    "location_id": null,
                    "department_id": null,
                    "location_name": null,
                    "approver_emails": [],
                    "department_name": null,
                    "parent_department": null,
                    "allow_access_to_fyle": false
                },
                "created_at": "2022-12-12T07:52:51.271018Z",
                "updated_at": "2022-12-22T10:21:47.009780Z",
                "workspace": 2
            },
            "destination_vendor": null,
            "destination_card_account": null,
            "created_at": "2022-12-12T07:53:51.790275Z",
            "updated_at": "2022-12-12T07:53:51.790278Z",
            "workspace": 2
        },
        {
            "id": 1,
            "source_employee": {
                "id": 2304,
                "attribute_type": "EMPLOYEE",
                "display_name": "Employee",
                "value": "user9@fyleformicro.testing",
                "source_id": "ouprTNwS9nbr",
                "auto_mapped": true,
                "auto_created": false,
                "active": true,
                "detail": {
                    "user_id": "usD8XhlfzknL",
                    "location": null,
                    "full_name": "Justin Glass",
                    "department": "Department 2",
                    "department_id": "dept3jkgYEJHYx",
                    "employee_code": null,
                    "department_code": null
                },
                "created_at": "2022-12-12T07:52:37.238764Z",
                "updated_at": "2022-12-12T07:52:37.238776Z",
                "workspace": 2
            },
            "destination_employee": {
                "id": 2248,
                "attribute_type": "EMPLOYEE",
                "display_name": "Employee",
                "value": "Justin Glass",
                "destination_id": "2880",
                "auto_created": false,
                "active": true,
                "detail": {
                    "email": "user9@fyleforintegrations.com",
                    "title": null,
                    "mobile": null,
                    "class_id": null,
                    "full_name": "Justin Glass",
                    "joined_at": "2021-03-09T05:54:51.000-08:00",
                    "location_id": null,
                    "department_id": null,
                    "location_name": null,
                    "approver_emails": [],
                    "department_name": null,
                    "parent_department": null,
                    "allow_access_to_fyle": false
                },
                "created_at": "2022-12-12T07:52:51.270894Z",
                "updated_at": "2022-12-22T10:21:47.009555Z",
                "workspace": 2
            },
            "destination_vendor": null,
            "destination_card_account": null,
            "created_at": "2022-12-12T07:53:51.790246Z",
            "updated_at": "2022-12-12T07:53:51.790263Z",
            "workspace": 2
        }
    ]
}
